INSERT INTO pennCnv VALUES (DEFAULT,'1','144800611','144838175','3','37565','2','1','rs4529770','rs12065999','13.538',4);
INSERT INTO pennCnv VALUES (DEFAULT,'1','195089923','195171073','12','81151','2','1','rs10922144','rs7354841','34.449',4);
INSERT INTO pennCnv VALUES (DEFAULT,'2','51780103','51780408','5','306','2','1','rs11563267','rs13022286','19.635',4);
INSERT INTO pennCnv VALUES (DEFAULT,'3','185698890','185725548','8','26659','2','1','rs3930233','rs6443978','12.667',4);
INSERT INTO pennCnv VALUES (DEFAULT,'4','63820936','63833261','4','12326','2','1','rs10050111','rs17083582','17.879',4);
INSERT INTO pennCnv VALUES (DEFAULT,'5','117418263','117421055','4','2793','2','1','rs10071435','rs2900114','16.158',4);
INSERT INTO pennCnv VALUES (DEFAULT,'15','92591923','92633148','9','41226','2','1','rs768399','rs8035826','25.756',4);
INSERT INTO pennCnv VALUES (DEFAULT,'2','208469480','208484101','4','14622','5','3','rs10497888','rs2621472','11.794',4);
INSERT INTO pennCnv VALUES (DEFAULT,'3','60187488','60203700','6','16213','5','3','rs9880343','rs17338297','21.283',4);
INSERT INTO pennCnv VALUES (DEFAULT,'11','130830006','130853281','15','23276','5','3','rs7950545','rs1355982','50.136',4);
INSERT INTO pennCnv VALUES (DEFAULT,'12','31895437','31945102','15','49666','5','3','rs7980890','rs11051659','43.672',4);
INSERT INTO pennCnv VALUES (DEFAULT,'17','41521621','41544850','7','23230','5','3','rs17660132','rs7225002','26.783',4);
INSERT INTO pennCnv VALUES (DEFAULT,'19','48093776','48160500','11','66725','5','3','rs10405494','rs17279415','39.450',4);
INSERT INTO pennCnv VALUES (DEFAULT,'19','55952801','55955322','4','2522','5','3','rs7245984','rs7248759','19.651',4);
INSERT INTO pennCnv VALUES (DEFAULT,'19','60007252','60024413','3','17162','5','3','rs35950908','rs12461010','9.922',4);
INSERT INTO pennCnv VALUES (DEFAULT,'2','51780103','51780408','5','306','2','1','rs11563267','rs13022286','22.674',4);
INSERT INTO pennCnv VALUES (DEFAULT,'2','158967549','159017035','7','49487','2','1','rs2602191','rs2193705','19.505',4);
INSERT INTO pennCnv VALUES (DEFAULT,'4','26282071','26365953','5','83883','2','1','rs1558722','rs1129230','11.763',4);
INSERT INTO pennCnv VALUES (DEFAULT,'4','47997653','48007762','3','10110','2','1','rs309890','rs6814786','12.325',4);
INSERT INTO pennCnv VALUES (DEFAULT,'4','75575429','75596222','3','20794','2','1','rs1494893','rs6447000','12.327',4);
INSERT INTO pennCnv VALUES (DEFAULT,'7','110810558','110909710','12','99153','2','1','rs17158544','rs1558078','33.970',4);
INSERT INTO pennCnv VALUES (DEFAULT,'8','5586807','5592495','8','5689','2','1','rs2527073','rs1707413','18.060',4);
INSERT INTO pennCnv VALUES (DEFAULT,'10','135202590','135207229','13','4640','2','1','rs12164704','rs1536826','19.765',4);
INSERT INTO pennCnv VALUES (DEFAULT,'11','2587055','2620467','10','33413','2','1','rs7104624','rs756852','20.497',4);
INSERT INTO pennCnv VALUES (DEFAULT,'11','31606051','31620916','3','14866','2','1','rs4922570','rs2146568','11.779',4);
INSERT INTO pennCnv VALUES (DEFAULT,'18','4367745','4395472','10','27728','2','1','rs1462953','rs6506201','13.711',4);
INSERT INTO pennCnv VALUES (DEFAULT,'18','22818519','22818622','3','104','2','1','rs383361','rs496870','14.178',4);
INSERT INTO pennCnv VALUES (DEFAULT,'18','65360121','65368251','6','8131','2','1','rs8087192','rs1036841','16.520',4);
INSERT INTO pennCnv VALUES (DEFAULT,'7','140018','152743','5','12726','5','3','rs7456436','rs6965835','16.190',4);
INSERT INTO pennCnv VALUES (DEFAULT,'17','31467924','31621634','13','153711','5','3','rs4796154','rs4796184','20.663',4);
INSERT INTO pennCnv VALUES (DEFAULT,'1','103948080','104012569','5','64490','2','1','rs461176','rs425970','17.625',4);
INSERT INTO pennCnv VALUES (DEFAULT,'2','54531219','54546994','3','15776','2','1','rs12623436','rs6755780','11.913',4);
INSERT INTO pennCnv VALUES (DEFAULT,'3','37954886','37961253','5','6368','2','1','rs7627496','rs9844203','25.065',4);
INSERT INTO pennCnv VALUES (DEFAULT,'5','140206092','140213571','5','7480','2','1','rs7730895','rs10054866','17.176',4);
INSERT INTO pennCnv VALUES (DEFAULT,'6','32748314','32761363','7','13050','2','1','rs28891406','rs2856692','14.544',4);
INSERT INTO pennCnv VALUES (DEFAULT,'6','61949077','62021131','3','72055','2','1','rs4502981','rs840064','9.326',4);
INSERT INTO pennCnv VALUES (DEFAULT,'6','79029649','79086086','7','56438','2','1','rs818248','rs9448361','24.412',4);
INSERT INTO pennCnv VALUES (DEFAULT,'6','169248762','169262485','7','13724','2','1','rs833681','rs9355132','19.018',4);
INSERT INTO pennCnv VALUES (DEFAULT,'7','61792309','61810167','3','17859','2','1','rs8188311','rs35557287','14.304',4);
INSERT INTO pennCnv VALUES (DEFAULT,'8','14065827','14072885','3','7059','2','1','rs6992644','rs1478023','15.984',4);
INSERT INTO pennCnv VALUES (DEFAULT,'8','51195366','51196070','3','705','2','1','rs203618','rs203617','14.229',4);
INSERT INTO pennCnv VALUES (DEFAULT,'11','54711492','54782736','3','71245','2','1','rs12099229','rs11228889','11.157',4);
INSERT INTO pennCnv VALUES (DEFAULT,'12','132212688','132244186','7','31499','2','1','rs2062719','rs2292029','18.355',4);
INSERT INTO pennCnv VALUES (DEFAULT,'14','18534123','19034076','5','499954','2','1','rs28841911','rs28373974','19.445',4);
INSERT INTO pennCnv VALUES (DEFAULT,'14','23523206','23534570','5','11365','2','1','rs1957680','rs3966044','17.413',4);
INSERT INTO pennCnv VALUES (DEFAULT,'17','56079579','56087058','4','7480','2','1','rs9912614','rs12103842','13.669',4);
INSERT INTO pennCnv VALUES (DEFAULT,'21','33949012','33978117','7','29106','2','1','rs2070391','rs2251854','32.493',4);
INSERT INTO pennCnv VALUES (DEFAULT,'1','9247158','9302280','20','55123','5','3','rs9434742','rs1294046','49.377',4);
INSERT INTO pennCnv VALUES (DEFAULT,'1','108124058','108479884','76','355827','5','3','rs7521681','rs575371','180.664',4);
INSERT INTO pennCnv VALUES (DEFAULT,'12','31157554','31293957','27','136404','5','3','rs4931434','rs684454','63.750',4);
INSERT INTO pennCnv VALUES (DEFAULT,'17','3133205','3140708','5','7504','5','3','rs9906934','rs2317892','17.953',4);
INSERT INTO pennCnv VALUES (DEFAULT,'18','61352708','61356682','4','3975','5','3','rs9957584','rs9947562','7.990',4);
INSERT INTO pennCnv VALUES (DEFAULT,'22','20644463','20755493','45','111031','5','3','rs239917','rs4821680','81.564',4);
INSERT INTO pennCnv VALUES (DEFAULT,'22','20784680','20894646','42','109967','5','3','rs16983057','rs9623078','40.828',4);
INSERT INTO pennCnv VALUES (DEFAULT,'22','23991725','24239255','42','247531','5','3','rs9612921','rs16980329','90.604',4);
