CNV Region Report						
						
Report Name: C:\Users\Alina U\Documents\GS_LITGEN20140122						
CNV Analysis File Name: C:\Users\Alina U\Documents\Copy of GS_LITGEN20140122_cnvpartition\CNV\CNVLITGEN20140122,bin						
Manifest Name: humanomniexpress-12v1-1_b,bpm						
Number of Samples with CNV Regions: 48						
						
Sample ID	Chr	Start	End	CNV Value	CNV Conf	Comment
LTG_173	2	51862691	51931744	1	76,99544	
LTG_173	2	159259303	159308789	1	77,92768	
LTG_173	7	111023322	111122474	1	131,359	
LTG_173	X	2700157	6579935	2	1029,306	
LTG_173	X	7825325	45667837	2	774,3373	
LTG_173	X	45726771	58483247	2	1868,299	
LTG_173	X	61694576	154898561	2	1693,897	
LTG_173	Y	2655180	10077460	0	7861,786	
LTG_173	Y	13132024	24522209	0	55879,42	
LTG_173	Y	28495550	58883690	0	872,7363	
LTG_173	1	155206055	156317734	2	57,43283	LOH Region
LTG_173	2	161895780	162907232	2	45,61999	LOH Region
LTG_173	3	17221252	18250509	2	50,04852	LOH Region
LTG_173	3	141551574	142599285	2	69,36568	LOH Region
LTG_173	4	64342824	65437395	2	38,70029	LOH Region
LTG_173	5	60918763	64238731	2	263,5937	LOH Region
LTG_173	5	128856669	131344358	2	90,86151	LOH Region
LTG_173	6	100954036	101957291	2	53,16159	LOH Region
LTG_173	7	68607005	70071416	2	69,68638	LOH Region
LTG_173	7	90840353	92176640	2	109,5205	LOH Region
LTG_173	7	98626536	100172733	2	77,83766	LOH Region
LTG_173	8	78550000	79643639	2	49,1102	LOH Region
LTG_173	8	85141824	87056953	2	69,65039	LOH Region
LTG_173	8	89084837	90574472	2	96,28017	LOH Region
LTG_173	8	129311824	130353227	2	81,87106	LOH Region
LTG_173	10	37511225	39097912	2	43,1911	LOH Region
LTG_173	11	49120746	50217658	2	23,77028	LOH Region
LTG_173	15	49251367	50820204	2	142,102	LOH Region
LTG_173	17	4649785	5739151	2	138,9248	LOH Region
LTG_173	18	18561020	19619704	2	25,34237	LOH Region
LTG_173	19	20905979	21953645	2	63,95377	LOH Region
LTG_173	19	36932941	38475086	2	98,86053	LOH Region
LTG_173	22	28198577	29567431	2	81,31454	LOH Region
LTG_173	X	80579677	83499189	2	32,0979	LOH Region